<svg width="501" height="501" viewBox="0 0 501 501" fill="none" xmlns="http://www.w3.org/2000/svg">
<circle cx="250" cy="250" r="250" fill="white"/>
<path fill-rule="evenodd" clip-rule="evenodd" d="M231.211 0.605332C177.398 6.16263 137.262 21.7955 95.4393 53.4879C85.245 61.2124 62.7259 83.6596 53.7811 95.0122C26.828 129.222 9.18338 170.029 2.21154 214.276C-0.233301 229.797 -0.22761 271.844 2.22103 286.8C4.81114 302.615 10.1385 323.377 14.9618 336.457C24.2484 361.639 41.0442 390.732 57.7166 410.517C104.66 466.222 169.981 497.935 242.605 500.278C284.44 501.628 322.314 493.488 360.337 474.976C430.547 440.794 481.24 375.031 495.989 298.998C499.421 281.309 500.381 270.663 500.381 250.301C500.381 229.064 499.402 218.802 495.58 199.953C479.389 120.112 424.008 52.4033 348.469 20.0948C318.184 7.14194 289.235 1.11916 254.473 0.538023C243.768 0.359795 233.3 0.390131 231.211 0.605332ZM191.334 12.7438C162.618 26.7612 142.666 49.6503 131.716 81.1417C126.47 96.2266 124.87 106.889 124.892 126.584C124.912 144.199 125.865 151.291 130.216 166.196C141.087 203.445 168.812 232.524 204.994 244.628C218.414 249.117 225.28 250.231 245.928 251.27C275.108 252.737 290.017 255.835 307.39 264.039C338.907 278.922 359.51 305.112 369.662 343.197C372.466 353.716 372.573 354.844 372.626 374.492C372.679 394.619 372.64 395.029 369.497 407.178C363.316 431.072 353.757 448.181 337.671 464.137C320.796 480.875 303.639 489.894 277.92 495.549C267.017 497.947 229.289 497.965 214.082 495.58C171.185 488.851 133.174 472.644 98.3257 446.224C82.1327 433.948 60.2602 410.919 46.8539 392.03C15.2979 347.569 -1.31948 288.04 2.79261 234.185C7.62532 170.904 33.2131 115.947 78.0966 72.4521C109.403 42.1126 145.922 21.5936 188.486 10.4249C194.23 8.91759 199.571 7.67568 200.354 7.66525C201.137 7.65482 197.078 9.9405 191.334 12.7438ZM262.807 100.558C273.253 105.77 278.582 114.25 278.565 125.636C278.541 141.855 266.363 154.04 250.2 154.016C226.487 153.981 213.412 127.453 227.763 108.492C230.177 105.303 233.136 102.895 237.257 100.765C242.405 98.1037 244.212 97.6695 250.132 97.6695C255.906 97.6695 257.952 98.1359 262.807 100.558ZM236.664 347.033C230.087 350.315 224.795 355.681 221.851 362.052C218.957 368.319 218.972 381.646 221.883 387.95C224.508 393.637 230.894 400.015 236.933 402.982C240.882 404.922 243.054 405.303 250.2 405.303C257.622 405.303 259.452 404.956 264.12 402.667C270.022 399.773 275.049 394.794 278.406 388.518C280.259 385.052 280.583 383.034 280.583 374.966C280.583 366.897 280.259 364.88 278.406 361.414C275.006 355.056 270.02 350.168 263.737 347.033C258.722 344.531 256.951 344.155 250.2 344.155C243.45 344.155 241.679 344.531 236.664 347.033Z" fill="black"/>
</svg>
