<svg width="1000" height="1000" viewBox="0 0 1000 1000" fill="none" xmlns="http://www.w3.org/2000/svg">
<circle cx="500" cy="500" r="500" fill="#E43309"/>
<path fill-rule="evenodd" clip-rule="evenodd" d="M556.574 201.015C551.565 203.97 538.472 214.849 527.093 225.511C497.694 253.058 474.836 284.045 456.773 320.843C436.077 363.006 427.557 404.861 424.944 477.192L424.163 498.777L419.356 497.318C412.18 495.142 406.577 491.966 399.536 486.087C383.446 472.648 371.945 451.509 364.119 420.99C359.667 403.628 357.379 400.402 349.522 400.402C340.558 400.402 321.055 417.302 309.133 435.399C286.326 470.017 275.318 513.635 275.012 570.598C274.859 598.957 276.162 610.634 281.907 632.434C300.401 702.595 352.769 760.702 420.203 785.887C447.565 796.105 469.486 800 499.646 800C529.806 800 551.727 796.105 579.089 785.887C638.733 763.611 687.964 714.38 710.24 654.736C722.255 622.563 726.592 591.45 723.932 556.513C720.094 506.135 709.043 469.222 684.575 425.051C675.389 408.467 661.79 388.293 634.804 351.217C610.24 317.469 601.978 304.782 593.456 287.72C582.325 265.436 576.903 245.544 574.958 219.848C574.057 207.943 573.646 206.25 571.018 203.621C567.645 200.249 560.162 198.898 556.574 201.015ZM553.652 249.189C556.901 265.733 562.182 280.687 571.199 298.871C581.197 319.035 589.358 331.601 616.938 369.297C650.494 415.16 663.127 435.224 675.489 462.291C689.294 492.513 696.665 523.071 699.088 560.108C701.479 596.675 695.501 628.908 680.478 660.463C664.677 693.647 641.154 721.153 610.999 741.706C605.293 745.595 581.638 758.401 580.162 758.401C579.689 758.401 580.423 756.826 581.793 754.903C585.945 749.073 594.342 730.156 596.653 721.427C598.395 714.85 598.806 709.228 598.712 693.256C598.604 675.024 598.287 672.133 595.04 659.758C590.076 640.841 582.273 625.224 564.884 599.399C543.502 567.646 540.523 561.223 538.353 542.188C537.452 534.292 536.723 532.074 534.136 529.374C529.943 524.997 525.472 524.152 520.071 526.715C513.182 529.984 496.238 547.716 487.602 560.695C471.39 585.059 464.736 605.436 462.331 638.089L461.466 649.827L458.321 645.132C455.481 640.892 451.507 630.101 449.854 622.134C447.948 612.957 437.068 609.974 428.401 616.253C416.656 624.761 407.808 640.766 402.64 662.854C399.54 676.102 399.539 709.723 402.639 721.427C404.95 730.156 413.347 749.073 417.499 754.903C418.868 756.826 419.675 758.401 419.29 758.401C416.116 758.401 390.247 743.464 380.226 735.845C340.718 705.811 314.141 664.229 303.774 616.223C294.558 573.56 300.966 510.12 318.49 470.51C323.851 458.391 338.747 435.615 341.311 435.615C341.718 435.615 342.974 438.915 344.102 442.951C346.854 452.802 356.051 471.807 363.338 482.7C380.322 508.094 404.364 523.081 430.421 524.517L441.637 525.136L445.275 521.497L448.913 517.859L449.657 493.463C452.268 407.967 458.869 372.791 480.393 329.686C489.806 310.835 499.494 295.505 513.59 277.156C521.274 267.156 550.079 236.817 551.009 237.747C551.28 238.019 552.47 243.169 553.652 249.189ZM524.611 582.956C526.241 586.166 534.317 598.827 542.555 611.093C559.051 635.65 566.333 649.677 569.979 663.912C577.258 692.33 576.099 711.054 565.734 732.578C561.262 741.865 558.772 745.307 550.84 753.174C535.387 768.496 519.838 775.181 499.646 775.181C479.454 775.181 463.905 768.496 448.452 753.174C440.527 745.314 438.025 741.856 433.551 732.578C426.293 717.525 423.971 705.69 424.896 688.443C425.585 675.591 428.111 661.539 430.942 654.804L432.388 651.366L435.381 656.465C443.266 669.903 455.486 678.765 468.345 680.371C475.697 681.29 482.233 679.066 484.514 674.869C485.442 673.16 486.324 664.397 486.855 651.588C487.772 629.533 489.111 619.369 492.813 606.398C495.64 596.492 504.39 579.411 511.38 570.152L516.484 563.392L519.065 570.256C520.484 574.032 522.979 579.747 524.611 582.956Z" fill="white"/>
</svg>
