<svg width="1000" height="1000" viewBox="0 0 1000 1000" fill="none" xmlns="http://www.w3.org/2000/svg">
<circle cx="500" cy="500" r="500" fill="#939498"/>
<path fill-rule="evenodd" clip-rule="evenodd" d="M483.706 208.895C444.162 236.272 395.916 249.577 349.957 245.783C330.93 244.211 311.216 240.052 295.663 234.328C289.54 232.074 282.453 229.461 279.913 228.521C274.42 226.487 270.692 227.209 266.852 231.049L264.023 233.878V392.431C264.023 573.521 262.977 555.737 275.062 580.269C299.418 629.715 359.315 698.3 421.55 748.007C451.477 771.91 493.587 800 499.493 800C504.491 800 538.935 777.709 566.366 756.72C633.392 705.438 698.061 633.085 724.077 580.269C736.162 555.738 735.116 573.505 735.116 392.55V234.116L732.311 230.853C728.444 226.358 723.095 226.616 709.921 231.932C683.633 242.543 663.93 246.245 633.749 246.241C610.305 246.239 602.013 245.261 582.187 240.162C557.227 233.743 535.329 223.216 511.458 206.158C506.201 202.402 501.613 200 499.696 200C497.692 200 491.901 203.221 483.706 208.895ZM508.106 230.838C518.022 237.628 540.964 249.177 554.648 254.267C599.772 271.054 652.188 272.848 699.126 259.211C704.419 257.674 709.673 256.059 710.8 255.622C712.747 254.867 712.851 262.337 712.851 402.461C712.851 566.155 713.566 551.594 704.663 569.251C681.899 614.395 629.976 675.348 575.122 721.316C552.543 740.237 503.43 775.391 499.572 775.391C495.888 775.391 448.22 741.677 427.499 724.414C365.843 673.051 308.347 604.421 290.331 560.688L286.332 550.977L286.309 402.902C286.29 262.352 286.393 254.867 288.339 255.622C302.976 261.291 330.577 266.659 351.327 267.871C383.685 269.763 415.129 265.174 444.491 254.277C458.088 249.23 483.602 236.295 491.788 230.299C495.101 227.872 498.466 225.862 499.265 225.833C500.064 225.805 504.043 228.057 508.106 230.838ZM486.093 282.175C459.206 300.436 431.74 308.984 399.96 308.984C381.06 308.984 368.228 306.762 348.76 300.118C331.935 294.377 328.905 294.274 324.941 299.313C322.658 302.217 322.616 304.359 322.616 421.093C322.616 538.19 322.652 540.023 325.046 547.205C334.4 575.261 370.799 623.2 411.443 660.992C442.176 689.567 491.022 725 499.683 725C503.417 725 525.967 710.803 545.846 695.939C602.355 653.682 656.437 591.739 673.242 550.029L677.109 540.43L677.418 422.656C677.708 312.114 677.6 304.632 675.66 300.794C674.457 298.413 672.236 296.234 670.345 295.578C666.724 294.322 664.908 294.755 646.64 301.227C630.692 306.876 616.947 309.125 598.593 309.087C566.444 309.021 540.531 300.864 513.033 282.154C507.034 278.071 501.257 275.002 499.58 275.007C497.921 275.011 492.046 278.132 486.093 282.175ZM508.026 305.559C523.433 315.555 544.991 324.22 565.195 328.536C573.169 330.24 580.179 330.645 600.351 330.571C624.754 330.481 625.988 330.362 639.609 326.765C647.343 324.724 654.078 323.052 654.574 323.05C655.07 323.048 655.334 371.43 655.159 430.566L654.843 538.086L649.722 548.047C630.368 585.696 590.729 631.336 546.445 666.958C531.9 678.658 502.234 699.211 499.885 699.216C497.142 699.221 473.743 683.361 456.796 670.007C412.455 635.069 368.689 585.344 349.418 548.009L344.296 538.086L343.98 430.566C343.805 371.43 344.069 323.048 344.566 323.05C345.061 323.052 351.796 324.724 359.531 326.765C373.151 330.362 374.385 330.481 398.788 330.571C418.96 330.645 425.97 330.24 433.945 328.536C454.284 324.192 478.335 314.423 491.952 304.975C495.175 302.739 498.453 300.881 499.237 300.846C500.021 300.811 503.976 302.932 508.026 305.559Z" fill="white"/>
</svg>
