<svg width="1000" height="1000" viewBox="0 0 1000 1000" fill="none" xmlns="http://www.w3.org/2000/svg">
<circle cx="500" cy="500" r="500" fill="#E09D32"/>
<path fill-rule="evenodd" clip-rule="evenodd" d="M666.14 201.655C649.857 205.602 636.475 216.513 628.719 232.166C624.245 241.195 623.821 242.87 623.305 253.589C622.844 263.15 623.179 266.643 625.191 273.247C632.552 297.417 654.227 313.556 679.217 313.476C696.179 313.421 707.386 308.843 719.27 297.112C727.898 288.595 732.369 280.829 734.952 269.874C744.684 228.598 707.414 191.649 666.14 201.655ZM691.544 225.693C710.239 232.687 718.592 254.988 709.07 272.483C695.694 297.061 660.458 295.691 648.918 270.145C644.095 259.468 646.423 244.277 654.291 235.085C663.498 224.329 678.076 220.654 691.544 225.693ZM437.891 254.29C435.838 255.431 412.009 295.713 358.203 389C315.986 462.194 281.182 522.083 280.859 522.084C280.537 522.084 274.473 512.006 267.383 499.686C260.293 487.366 253.235 476.294 251.697 475.082C247.511 471.782 241.479 472.222 237.683 476.102C235.948 477.874 226.698 492.941 217.125 509.581C201.194 537.275 199.777 540.204 200.407 544.152C201.699 552.277 211.704 556.667 218.337 552.021C219.686 551.076 226.238 540.811 232.896 529.209C239.554 517.607 245.107 508.229 245.236 508.368C245.363 508.508 250.327 517.005 256.268 527.251C267.005 545.775 267.057 545.901 265.302 549.516C264.331 551.517 249.242 577.903 231.768 608.152C214.296 638.402 200 664.35 200 665.812C200 670.067 202.542 674.484 206.029 676.288C210.893 678.802 789.107 678.802 793.971 676.288C797.457 674.485 800 670.067 800 665.816C800 664.356 784.527 636.299 765.616 603.468C734.62 549.659 730.81 543.567 726.951 541.633C719.068 537.685 710.938 542.663 710.938 551.437C710.938 554.793 716.537 565.35 738.62 603.617C753.845 630.003 766.561 652.256 766.876 653.07C767.333 654.248 758.777 654.487 724.856 654.242L682.262 653.934L621.644 549.051C588.305 491.366 561.008 443.854 560.983 443.471C560.929 442.653 601.689 371.893 602.894 370.711C603.343 370.27 616.334 391.8 631.763 418.554C647.192 445.307 661.106 468.212 662.683 469.452C664.348 470.762 667.382 471.707 669.92 471.707C677.384 471.707 682.992 463.694 680.363 456.781C677.981 450.514 613.295 339.655 610.609 337.235C606.604 333.627 599.282 333.627 595.748 337.235C594.327 338.684 582.918 357.67 570.395 379.422C557.872 401.176 547.325 418.95 546.957 418.92C546.59 418.891 525.195 382.196 499.414 337.374C463.979 275.769 451.767 255.477 449.375 254.224C445.432 252.159 441.684 252.18 437.891 254.29ZM481.086 352.379L517.73 415.863L499.805 433.816L481.88 451.769L453.678 423.652C426.95 397.005 425.247 395.536 421.102 395.536C417.557 395.536 411.8 398.523 390.726 411.296C376.425 419.965 364.529 426.862 364.291 426.623C363.731 426.064 442.89 288.895 443.772 288.895C444.14 288.895 460.931 317.463 481.086 352.379ZM448.145 450.907L476.58 479.325H481.832C487.078 479.325 487.115 479.294 508.168 458.266C521.521 444.928 529.652 437.625 530.345 438.344C531.556 439.604 653.379 650.457 654.337 652.953C654.837 654.257 619.577 654.52 443.875 654.52C327.791 654.52 232.812 654.207 232.812 653.825C232.812 652.675 334.865 476.072 337.552 472.57C339.835 469.597 415.889 422.601 418.545 422.523C419.185 422.504 432.505 435.276 448.145 450.907ZM692.188 494.757C685.598 497.329 682.482 505.248 685.651 511.374C687.954 515.827 690.746 517.411 696.302 517.411C702.187 517.411 707.422 512.22 707.422 506.387C707.422 499.073 698.526 492.283 692.188 494.757ZM205.988 717.077C198.002 721.548 198.441 734.165 206.703 737.587C209.112 738.586 227.766 738.866 276.001 738.631L342.001 738.309L344.829 735.021C348.664 730.562 348.664 723.791 344.829 719.332L342.001 716.043L275.395 715.776C221.568 715.561 208.251 715.81 205.988 717.077ZM432.617 716.818C423.998 721.557 424.119 733.129 432.833 737.586C436.588 739.506 563.19 739.42 567.416 737.495C571.038 735.845 573.839 730.959 573.802 726.356C573.773 722.696 571.041 718.748 567.167 716.766C563.598 714.942 435.941 714.99 432.617 716.818ZM658.621 716.62C652.089 719.256 650.214 729.256 655.171 735.021L657.999 738.309L723.999 738.631C772.234 738.866 790.887 738.586 793.297 737.587C796.827 736.126 800 731.196 800 727.176C800 723.302 796.946 718.388 793.588 716.858C789.921 715.187 662.728 714.963 658.621 716.62ZM315.262 777.557C308.73 780.193 306.855 790.194 311.812 795.958L314.64 799.247L382.4 799.568C431.952 799.803 451.045 799.522 453.455 798.523C456.983 797.062 460.156 792.132 460.156 788.114C460.156 784.24 457.102 779.326 453.744 777.795C450.076 776.124 319.37 775.899 315.262 777.557ZM545.832 778.016C537.847 782.484 538.285 795.103 546.545 798.523C548.955 799.522 568.048 799.803 617.6 799.568L685.36 799.247L688.188 795.958C692.023 791.499 692.023 784.728 688.188 780.269L685.36 776.981L616.996 776.714C561.711 776.498 548.097 776.748 545.832 778.016Z" fill="white"/>
</svg>
